{
	"name":        "getInstanceConnections",
	"description": "active server connections",

	"file":[
		{
			"min":  "*",
			"max":  "*",
			"file": "sql/getInstanceConnections.sql"
		}
	],

	"primary key": [
		"SessionID",
		"SessionNetTransport"
	],
	"storage": "report",
	"savehistoryrecords": false,

	"parameters": [
	],

	"component": {
		"name": "tableRawReport"
	}
}
