{
	"name":        "GetSizeOfDatabases",
	"description": "Get size of Databases",

	"file":[
		{
			"min":  "*",
			"max":  "*",
			"file": "sql/GetSizeOfDatabases.sql"
		}
	],

	"primary key": [
		"ServerName",
		"DatabaseId"
	],
	"storage": "report",
	"savehistoryrecords": false,

	"parameters": [
	],

	"component": {
		"name": "tableRawReport"
	}
}
